@startuml workplace-IS-ERD
' hides the circle next to the entity
hide circle

' produces only orthogonal lines in the diagram
skinparam Linetype ortho

' sets a minimal value of entity separation on the x-axis.
skinparam Nodesep 250

' sets a minimal value of entity separation on the y-axis.
skinparam Ranksep 50

entity Employee {
  *id : number <<generated>>
  --
  *first_name : text
  *last_name : text
  *email_address : text
  *street: text
  *house_number : number
  *city : text
  *zip_code : number
  *address_id : number <<FK>>
  *branch_id : number <<FK>>
}

entity Branch {
    *name : text
    --
    *budget : number
    *description : text
}

entity Attendance {
    *employee_id : number <<FK>>
    *branch_name : text <<FK>>
    *date : date
    *sequence_number : number <<generated>>
    --
    *attendance_type: attendance_type <<FK>>
    *hours_from : number
    *hours_to: number
}

entity AttendanceTypeEnum {
    *attendance_type : text
}


Employee }o--|| Branch
Employee ||--o{ Attendance
Attendance }o--|| Branch
Attendance }o--|| AttendanceTypeEnum
@enduml